nom,prenom,age,taille,ville
Durand,Jean,32,150,Lille
Dupont,Christophe,51,165,Santes
Terta,Henry,37,174,Loos
Kapri,Leon,45,145,Lille
Lenard,Michel,17,190,Wavrin
Lenard,Georges,15,160,Loos
Herpan,stephan,22,176,Lille
Mastic,Brice,61,155,Santes
Pouyeau,Maxime,11,130,Loos
Arox,Gilles,51,174,Loos
Follin,Paul,32,156,Haubourdin